…
## Reestructurar a lo largo

En ocasiones es útil dar una estructura larga al conjunto de datos, esto puede agilizar algunos procesos. En nuestro conjunto de datos cada municipio es una fila y los datos por año se encuentran en las columnas y posteriormente fue resumido con las estadísticas de la media y desviación estándar por grupo. Si nuestro propósito fuera generar una gráfica del comportamiento de cada grupo por año, esta estructura resultaría un poco compleja de manejar. 

En el siguiente ejemplo se usa `pivot_longer()` para pivotear la tabla y ponerla hacía lo largo. En los argumentos se le indica que la columna _grupo_ es la única que no se afectará (_cols = -grupo_), en el argumento `names_to` se le ha indicado que vamos a crear dos columnas a partir del nombre de las variables de los datos originales, estas se denominarán _estadistica_ y _anio_; ahora es necesario indicarle el patrón que tiene los nombres de las variables con el fin de que los pueda separar, así que el comando `names_pattern = "(.*)_del_v_(.*)"` les está indicando que el patrón debe ser: tomar todo lo que está antes de "_del_v_" y lo conservará en la columna _estadistica_, mientras que todo lo que esté posterior a ese patrón lo conservará en la columna _anio_. Los valores correspondientes se almancenan en la columna _valor_.


```r
(reesL <- res2 |>  
         pivot_longer(cols = -grupo, 
               names_to = c("estadistica", "anio"), 
               names_pattern = "(.*)_del_v_(.*)", 
               values_to = "valor"))
## # A tibble: 28 × 4
##    grupo estadistica anio  valor
##    <dbl> <chr>       <chr> <dbl>
##  1     1 media       2017   40  
##  2     1 desv.est    2017   11.9
##  3     1 media       2018   51  
##  4     1 desv.est    2018   11.1
##  5     1 media       2019   57.8
##  6     1 desv.est    2019   12.1
##  7     1 media       2020   47.8
##  8     1 desv.est    2020   11.5
##  9     1 media       2021   53.2
## 10     1 desv.est    2021   13.5
## # ℹ 18 more rows
```
…
